test/control_unit_simulation.vcd
$date
	Sun Apr 28 15:33:25 2024
$end
$version
	Icarus Verilog
$end
$timescale
	1s
$end
$scope module ControlUnit_tb $end
$var wire 1 ! RuWr $end
$var wire 2 " RUDataWrSrc [1:0] $end
$var wire 3 # ImmSrc [2:0] $end
$var wire 1 $ DMWr $end
$var wire 3 % DMCtrl [2:0] $end
$var wire 5 & BrOp [4:0] $end
$var wire 1 ' AluBSrc $end
$var wire 1 ( AluASrc $end
$var wire 4 ) ALUOp [3:0] $end
$var parameter 32 * CLK_PERIOD $end
$var reg 1 + clk $end
$var reg 3 , funct3 [2:0] $end
$var reg 7 - funct7 [6:0] $end
$var reg 7 . opcode [6:0] $end
$scope module uut $end
$var wire 3 / funct3 [2:0] $end
$var wire 7 0 funct7 [6:0] $end
$var wire 7 1 opcode [6:0] $end
$var reg 4 2 ALUOp [3:0] $end
$var reg 1 ( AluASrc $end
$var reg 1 ' AluBSrc $end
$var reg 5 3 BrOp [4:0] $end
$var reg 3 4 DMCtrl [2:0] $end
$var reg 1 $ DMWr $end
$var reg 3 5 ImmSrc [2:0] $end
$var reg 2 6 RUDataWrSrc [1:0] $end
$var reg 1 ! RuWr $end
$upscope $end
$upscope $end
$enddefinitions $end
$comment Show the parameter values. $end
$dumpall
b1010 *
$end
#0
$dumpvars
b0 6
b0 5
b0 4
b0 3
b0 2
b110011 1
b0 0
b0 /
b110011 .
b0 -
b0 ,
0+
b0 )
0(
0'
b0 &
b0 %
0$
b0 #
b0 "
1!
$end
#5
1+
#10
b1000 )
b1000 2
0+
b100000 -
b100000 0
#15
1+
#20
b1 )
b1 2
0+
b1 ,
b1 /
b0 -
b0 0
#25
1+
#30
b10 )
b10 2
0+
b10 ,
b10 /
#35
1+
#40
b11 )
b11 2
0+
b11 ,
b11 /
#45
1+
#50
b100 )
b100 2
0+
b100 ,
b100 /
#55
1+
#60
b101 )
b101 2
0+
b101 ,
b101 /
#65
1+
#70
b1101 )
b1101 2
0+
b100000 -
b100000 0
#75
1+
#80
b110 )
b110 2
0+
b110 ,
b110 /
b0 -
b0 0
#85
1+
#90
b111 )
b111 2
0+
b111 ,
b111 /
#95
1+
#100
b0 )
b0 2
1'
0+
b0 ,
b0 /
b10011 .
b10011 1
#105
1+
#110
b1 )
b1 2
0+
b1 ,
b1 /
#115
1+
#120
b10 )
b10 2
0+
b10 ,
b10 /
#125
1+
#130
b11 )
b11 2
0+
b11 ,
b11 /
#135
1+
#140
b100 )
b100 2
0+
b100 ,
b100 /
#145
1+
#150
b101 )
b101 2
0+
b101 ,
b101 /
#155
1+
#160
b110 )
b110 2
0+
b110 ,
b110 /
#165
1+
#170
b111 )
b111 2
0+
b111 ,
b111 /
#175
1+
#180
b1 "
b1 6
b0 )
b0 2
0+
b0 ,
b0 /
b11 .
b11 1
#185
1+
#190
b1 %
b1 4
0+
b1 ,
b1 /
#195
1+
#200
b10 %
b10 4
0+
b10 ,
b10 /
#205
1+
#210
b100 %
b100 4
0+
b100 ,
b100 /
#215
1+
#220
b101 %
b101 4
0+
b101 ,
b101 /
#225
1+
#230
b0 "
b0 6
b0 %
b0 4
1$
b1 #
b1 5
0!
0+
b0 ,
b0 /
b100011 .
b100011 1
#235
1+
#240
b1 %
b1 4
0+
b1 ,
b1 /
#245
1+
#250
b10 %
b10 4
0+
b10 ,
b10 /
#255
1+
#260
b0 %
b0 4
0$
b1000 &
b1000 3
b101 #
b101 5
1(
0+
b0 ,
b0 /
b1100011 .
b1100011 1
#265
1+
#270
b1001 &
b1001 3
0+
b1 ,
b1 /
#275
1+
#280
b1100 &
b1100 3
0+
b100 ,
b100 /
#285
1+
#290
b1101 &
b1101 3
0+
b101 ,
b101 /
#295
1+
#300
b1110 &
b1110 3
0+
b110 ,
b110 /
#305
1+
#310
b1111 &
b1111 3
0+
b111 ,
b111 /
#315
1+
#320
b10 "
b10 6
b10000 &
b10000 3
b110 #
b110 5
1!
0+
b0 ,
b0 /
b1101111 .
b1101111 1
#325
1+
#330
0+
b1100111 .
b1100111 1
