test/instmem_simulation.vcd
$date
	Sun Apr 28 10:50:01 2024
$end
$version
	Icarus Verilog
$end
$timescale
	1s
$end
$scope module InstMem_tb $end
$var wire 32 ! Inst [31:0] $end
$var parameter 32 " CLK_PERIOD $end
$var reg 32 # Address [31:0] $end
$var reg 1 $ clk $end
$var integer 32 % file [31:0] $end
$scope module uut $end
$var wire 32 & Adress [31:0] $end
$var reg 32 ' Inst [31:0] $end
$upscope $end
$upscope $end
$enddefinitions $end
$comment Show the parameter values. $end
$dumpall
b1010 "
$end
#0
$dumpvars
b11111111000000010000000100010011 '
b0 &
b10000000000000000000000000000011 %
0$
b0 #
b11111111000000010000000100010011 !
$end
#5
1$
#10
b100000010010000000100011 !
b100000010010000000100011 '
0$
b100 #
b100 &
#15
1$
#20
b100100010010001000100011 !
b100100010010001000100011 '
0$
b1000 #
b1000 &
#25
1$
#30
b1001000010010010000100011 !
b1001000010010010000100011 '
0$
b1100 #
b1100 &
#35
1$
#40
b1001100010010011000100011 !
b1001100010010011000100011 '
0$
b10000 #
b10000 &
#45
1$
#50
b1010000010000010011 !
b1010000010000010011 '
0$
b10100 #
b10100 &
#55
1$
#60
b1011000010010010011 !
b1011000010010010011 '
0$
b11000 #
b11000 &
#65
1$
#70
b100100010011 !
b100100010011 '
0$
b11100 #
b11100 &
#75
1$
#80
b100110010011 !
b100110010011 '
0$
b100000 #
b100000 &
#85
1$
#90
b100110011101100001100011 !
b100110011101100001100011 '
0$
b100100 #
b100100 &
#95
1$
#100
b100010010000100100110011 !
b100010010000100100110011 '
0$
b101000 #
b101000 &
#105
1$
#110
b110011000100110010011 !
b110011000100110010011 '
0$
b101100 #
b101100 &
#115
1$
#120
b11111110000000000000101011100011 !
b11111110000000000000101011100011 '
0$
b110000 #
b110000 &
#125
1$
#130
b10010000010100010011 !
b10010000010100010011 '
0$
b110100 #
b110100 &
#135
1$
#140
b10010010000000011 !
b10010010000000011 '
0$
b111000 #
b111000 &
#145
1$
#150
b10000010010010010000011 !
b10000010010010010000011 '
0$
b111100 #
b111100 &
#155
1$
#160
b100000010010100100000011 !
b100000010010100100000011 '
0$
b1000000 #
b1000000 &
#165
1$
#170
b110000010010100110000011 !
b110000010010100110000011 '
0$
b1000100 #
b1000100 &
#175
1$
#180
b1000000010000000100010011 !
b1000000010000000100010011 '
0$
b1001000 #
b1001000 &
#185
1$
#190
b1000000001100111 !
b1000000001100111 '
0$
b1001100 #
b1001100 &
